module repo.synapsis.id/software/projects/patrons/patron-monitoring/backend/core-service

go 1.17

require (
	github.com/go-co-op/gocron v1.18.0
	github.com/go-playground/validator/v10 v10.11.1
	// github.com/gofiber/fiber v1.14.6
	github.com/gofiber/fiber/v2 v2.46.0
	github.com/golang-jwt/jwt v3.2.2+incompatible
	github.com/joho/godotenv v1.4.0
	github.com/minio/minio-go/v7 v7.0.47
	github.com/mitchellh/mapstructure v1.5.0
	github.com/tealeg/xlsx v1.0.5
	github.com/thanhpk/randstr v1.0.4
	github.com/xhit/go-simple-mail/v2 v2.13.0
	go.mongodb.org/mongo-driver v1.11.1
	golang.org/x/crypto v0.8.0
	golang.org/x/oauth2 v0.4.0
)

require (
	cloud.google.com/go/compute/metadata v0.2.0 // indirect
	github.com/andybalholm/brotli v1.0.5 // indirect
	github.com/dustin/go-humanize v1.0.0 // indirect
	github.com/go-playground/locales v0.14.0 // indirect
	github.com/go-playground/universal-translator v0.18.0 // indirect
	github.com/go-test/deep v1.1.0 // indirect
	github.com/golang/protobuf v1.5.2 // indirect
	github.com/golang/snappy v0.0.1 // indirect
	github.com/google/uuid v1.3.0 // indirect
	github.com/json-iterator/go v1.1.12 // indirect
	github.com/klauspost/compress v1.16.3 // indirect
	github.com/klauspost/cpuid/v2 v2.1.0 // indirect
	github.com/leodido/go-urn v1.2.1 // indirect
	github.com/mattn/go-colorable v0.1.13 // indirect
	github.com/mattn/go-isatty v0.0.18 // indirect
	github.com/mattn/go-runewidth v0.0.14 // indirect
	github.com/minio/md5-simd v1.1.2 // indirect
	github.com/minio/sha256-simd v1.0.0 // indirect
	github.com/modern-go/concurrent v0.0.0-20180306012644-bacd9c7ef1dd // indirect
	github.com/modern-go/reflect2 v1.0.2 // indirect
	github.com/montanaflynn/stats v0.0.0-20171201202039-1bf9dbcd8cbe // indirect
	github.com/philhofer/fwd v1.1.2 // indirect
	github.com/pkg/errors v0.9.1 // indirect
	github.com/rivo/uniseg v0.2.0 // indirect
	github.com/robfig/cron/v3 v3.0.1 // indirect
	github.com/rs/xid v1.4.0 // indirect
	github.com/savsgio/dictpool v0.0.0-20221023140959-7bf2e61cea94 // indirect
	github.com/savsgio/gotils v0.0.0-20230208104028-c358bd845dee // indirect
	github.com/sirupsen/logrus v1.9.0 // indirect
	github.com/tinylib/msgp v1.1.8 // indirect
	github.com/toorop/go-dkim v0.0.0-20201103131630-e1cd1a0a5208 // indirect
	github.com/valyala/bytebufferpool v1.0.0 // indirect
	github.com/valyala/fasthttp v1.47.0 // indirect
	github.com/valyala/tcplisten v1.0.0 // indirect
	github.com/xdg-go/pbkdf2 v1.0.0 // indirect
	github.com/xdg-go/scram v1.1.1 // indirect
	github.com/xdg-go/stringprep v1.0.3 // indirect
	github.com/youmark/pkcs8 v0.0.0-20181117223130-1be2e3e5546d // indirect
	golang.org/x/net v0.9.0 // indirect
	golang.org/x/sync v0.1.0 // indirect
	golang.org/x/sys v0.8.0 // indirect
	golang.org/x/text v0.9.0 // indirect
	google.golang.org/appengine v1.6.7 // indirect
	google.golang.org/protobuf v1.28.0 // indirect
	gopkg.in/ini.v1 v1.66.6 // indirect
)
